ENVS 193DS Final
…
`summarise()` has grouped output by 'year'. You can override using the
`.groups` argument.

print(slice_sample(sst_clean, n = 5)) # slice and print 5 random rows

# A tibble: 30 × 3
# Groups:   year [6]
   year  month mean_monthly_sst
   <fct> <ord>            <dbl>
 1 2018  Apr               12.8
 2 2018  May               13.6
 3 2018  Dec               15.6
 4 2018  Jan               15  
 5 2018  Jul               18.2
 6 2019  Dec               15  
 7 2019  Aug               17  
 8 2019  Sep               18.8
 9 2019  May               14.3
10 2019  Apr               13.7
# ℹ 20 more rows
…
